952332 290590 525
769512 912744 525
633116 318810 509
857255 356698 525
723704 200823 509
37363 730349 509
450904 392829 449
811483 395612 509
658371 466434 509
254386 35425 443
599038 320690 470
101537 575165 470
904775 878622 445
688319 105789 509
994217 967928 458
207972 286291 443
471147 36042 449
730331 190392 509
982801 961467 458
618780 648548 509
501749 315348 449
535310 246510 470
145558 544081 470
517058 935929 525
252182 855205 525
259872 220748 443
63858 58448 335
660587 887654 525
694329 949982 525
734407 946198 525
615164 624145 372
713684 112173 509
267067 325525 407
806845 367436 509
102210 906354 525
943258 320870 525
89170 520110 470
885922 523333 525
473393 968145 525
34035 971250 525
997914 288431 525
999138 900553 507
396307 445795 449
394350 644094 509
904977 83897 525
692293 826120 504
806364 150178 509
25645 254461 443
39586 963778 525
98846 103620 341
954784 638151 525
896913 17704 525
432977 182304 449
496245 298063 449
579863 96210 470
922836 811042 525
962883 53410 525
131708 87981 354
687489 661891 442
574737 397750 470
795373 989789 525
7052 47166 324
650044 570908 509
949228 402853 525
223085 760330 509
764771 35807 509
121267 214362 383
504302 21234 449
315651 604418 470
307159 887333 525
489340 873361 525
721498 429507 509
382333 351313 423
848082 364065 525
518133 746489 509
438768 232135 449
850582 550150 525
789691 713725 468
269312 943968 525
161420 193762 365
498848 657777 509
429063 480705 444
793485 478435 509
292262 838813 525
282370 179868 443
205177 159739 370
7297 432635 449
410481 129374 449
600989 549479 434
761472 493651 509
501818 304870 449
543727 906058 525
958195 369883 525
307646 881928 525
801956 505132 509
931287 543197 525
627833 357267 509
152887 95186 375
435315 85228 449
140388 254089 443
146447 848599 525
619433 578636 447
165751 787521 509
170725 348250 443
306369 308761 371
767599 198243 509
211831 576653 470
305516 158906 443
874696 293703 525
169084 965270 525
394681 800866 509
418675 493397 444
118089 333986 443
640657 165915 509
132807 676997 509
364993 141774 443
399810 233162 441
955512 240273 525
365902 641243 509
652820 616537 509
358899 341937 441
183045 414771 449
193171 670298 509
376027 340118 441
240937 603589 470
82550 461843 449
910043 704058 525
626989 114657 509
13211 821063 509
744417 749796 393
767898 655848 504
356992 174535 443
407160 410750 449
128374 217513 386
514026 977355 525
96598 971546 525
738310 676863 504
141437 656303 509
443094 546534 470
986160 254795 525
749792 798676 468
529617 212008 470
343175 150986 443
504339 210999 449
546943 644578 509
925681 137667 525
391999 149384 443
503195 457275 444
355399 924183 525
742660 377034 509
320876 138618 443
382552 670206 509
709979 8696 509
688180 937802 525
340014 285264 389
204661 452194 449
301438 851519 525
487615 630021 509
569142 702234 509
99821 635303 509
337151 84839 443
270576 826026 509
498455 110636 449
694536 673073 442
706603 450008 509
290218 466621 449
911383 126640 525
303911 956754 525
369997 828776 509
169623 6761 383
314455 949843 525
588304 726334 509
387717 249394 441
800434 205 509
743677 170575 509
96306 417299 449
124379 295618 443
475888 191502 449
526957 610269 452
69605 145487 375
256865 243281 363
541271 296627 470
475652 801681 509
87111 515231 470
846555 837869 401
513262 726349 509
863525 228497 525
777309 865889 525
328922 650442 509
949928 656313 525
693688 690612 442
367851 599728 470
768353 660924 504
680195 4708 509
271811 555454 470
186065 898090 525
292927 396400 441
274356 494583 449
451672 147031 449
899544 950316 507
545115 894285 525
62776 491239 449
212197 81056 383
216926 498723 449
370819 862786 525
945647 814680 525
851146 832424 525
580213 782528 509
595357 713986 509
500145 389567 449
457283 103901 449
445007 798928 509
239471 810532 509
412040 647366 509
329615 208941 443
14058 658982 509
672229 315014 509
814337 417143 509
343030 635865 509
755905 470012 509
691080 332493 509
392735 47004 443
210532 569948 470
302313 82760 443
744540 863937 525
12310 339756 443
315187 579478 470
997139 43385 525
19325 426331 449
715708 553683 509
908456 240459 525
417236 39728 449
70706 919151 525
366781 417075 449
369388 572963 470
845227 624086 525
136038 296904 443
700536 122077 509
983983 953057 458
560706 755430 509
549931 711488 509
87866 124372 354
50660 275696 443
657328 921649 525
887455 127871 525
59550 951223 525
291949 35328 443
910400 933803 476
137477 56581 354
414126 998380 525
