668341 705163 504
315933 278864 389
937645 413943 525
302906 770833 509
567701 701877 509
435548 399334 449
639339 248343 509
32727 359160 443
638684 320132 509
376192 165477 443
145121 977073 525
738663 799268 468
360495 894174 525
306286 450518 449
561579 330966 470
640698 647164 416
52405 130329 354
31467 51179 324
970604 109563 525
307846 169791 443
75091 345533 443
688303 862971 525
543563 812825 509
831373 69853 509
595596 639376 509
381204 743405 509
331671 928276 525
53362 148513 375
490817 827173 509
194646 185754 360
122458 710004 509
995817 780167 525
966825 91104 525
103729 507496 449
96422 354697 443
246303 948928 525
783413 436354 509
799466 69541 509
652532 572775 509
15936 633043 509
435981 683660 509
787488 974041 525
411310 955244 525
486628 141239 449
270241 200414 443
723034 50456 509
651937 469693 509
24540 203354 383
918337 754815 525
801158 719347 468
988401 610204 525
926168 263643 525
980548 65320 525
919201 756576 525
423274 60074 449
853819 589887 525
804633 938273 525
421330 313432 449
498340 439661 444
683946 490325 509
537861 105374 470
36325 814778 509
785356 888902 525
467337 751823 509
700583 411681 509
37765 394258 443
893970 686159 525
321629 77693 443
574651 983675 525
544469 970706 525
38770 712958 509
292285 956181 525
966386 930704 507
323007 678192 509
191483 259718 443
522677 584349 452
64686 125683 354
269374 458547 449
440556 429015 400
651934 280759 509
959896 894254 507
697001 972765 525
139354 754436 509
614036 789402 509
218079 229435 368
96221 306706 443
954444 120384 525
336604 597164 470
216803 145352 386
80905 417376 449
176304 560697 470
9252 907615 525
626818 564803 509
515233 91643 470
918581 965424 507
61437 201694 383
761847 437922 509
4730 939608 525
467525 842760 525
724367 149460 509
332359 209221 443
474058 726513 509
587141 888111 525
182965 785878 509
621571 695003 509
395951 731582 509
804019 661782 504
973219 573228 525
990348 19389 525
261768 79512 443
502801 423149 444
594243 717096 509
459485 150676 449
546749 298769 470
872664 397070 525
633510 157642 509
237868 912231 525
951902 511297 525
968800 535396 525
539232 122023 470
973107 827990 525
610132 419262 470
406500 320728 441
918719 906168 476
82020 747235 509
638504 598865 509
119064 77917 354
185211 366480 443
368174 865371 525
406715 704439 509
562136 126258 470
523849 314585 470
782250 373485 509
927954 594818 525
847269 618332 525
533293 693759 509
617514 883822 525
390047 537024 470
386413 48630 443
945040 474222 525
801041 104180 509
173119 4394 383
222518 485719 449
889713 409032 525
913201 957216 507
672122 507808 509
200514 587434 470
700339 975103 525
882139 725670 525
641113 658720 429
480120 512311 470
481850 924182 525
616713 294512 470
758465 666294 504
771564 70327 509
303044 723856 509
86335 380593 443
80972 556440 470
71532 708479 509
922830 661159 525
929153 478904 525
184184 292505 443
500992 739071 509
356505 408987 436
481781 821014 509
127165 846253 525
174127 460953 449
997583 642394 525
823425 59537 509
550936 175294 470
687286 438646 509
322342 612204 470
27439 101991 351
410366 828968 509
737731 101373 509
475172 567856 470
354534 363513 410
510185 139524 449
910271 6993 525
959664 985975 458
39100 168348 383
619161 350290 470
218223 857807 525
309821 254114 407
116396 159474 383
595439 95243 470
892198 620965 525
607307 727338 509
901228 728300 525
64559 13658 340
490522 689829 509
779496 51666 509
106591 966570 525
235577 175945 443
684780 938996 525
543335 699675 509
762297 355704 509
365938 345680 441
868337 111104 525
270880 633233 509
57992 407240 443
943723 642826 525
203801 732600 509
709169 84976 509
754354 316451 509
515636 62751 470
968584 586045 525
887734 848304 445
577864 63864 470
255528 803408 509
705122 988553 525
838699 431130 525
30157 514344 470
943681 70677 525
659115 112720 509
217298 202689 386
100077 682344 509
764372 421300 509
624717 496602 470
149715 651671 509
39929 34523 324
658627 587683 509
354369 873921 525
902548 79179 525
615088 420539 470
775289 338677 509
404474 428439 449
864440 898373 445
312461 503610 449
958114 69519 525
130820 275854 443
669588 700837 442
807433 259952 509
477015 948572 525
181160 767272 509
786841 439020 509
874995 794732 525
111448 964702 525
629738 717481 504
268813 486701 449
949877 378326 525
972785 268358 525
698157 291667 509
810467 118249 509
884852 727890 525
984360 116121 525
277193 792663 509
724975 545354 509
138654 226760 386
804420 280779 509
