334849 646355 509
667051 593701 509
148649 964663 525
140 387478 443
212850 637866 509
128362 456022 449
765944 43799 509
585205 725381 509
142704 644563 509
583950 823529 509
983128 139615 525
554900 529049 452
856799 645830 525
891081 497333 525
522131 640443 509
678056 272828 509
219956 618302 470
894447 445892 525
952466 33528 525
576700 47594 470
706755 151493 509
888698 865577 445
10859 993653 525
926629 503317 525
265433 873546 525
845353 487845 525
741317 598057 509
542583 925747 525
242717 382162 441
960485 124129 525
950644 175127 525
676614 379251 509
997955 649141 525
508857 796814 509
716230 247796 509
94383 89166 333
640035 315549 509
587145 536197 452
393012 364323 436
977462 631388 525
932970 435850 525
918479 751275 525
593661 314004 470
518865 999762 525
894670 296762 525
885744 509823 525
483491 303372 449
173783 930053 525
329135 369514 441
399671 356072 436
970082 598555 525
270637 759332 509
905973 759027 525
38090 1934 324
301824 603270 470
463841 506661 426
256944 439198 449
100921 885606 525
822645 751600 468
192793 137271 383
274227 792706 509
834457 839869 525
143064 728862 509
718429 964000 525
178953 93609 383
224327 667037 509
326220 225292 443
986689 166058 525
163518 406873 443
573758 545103 452
857530 538017 525
240122 381296 441
566554 181927 470
612215 509788 470
594983 953110 525
483821 528523 470
265656 759177 509
380256 885854 525
550713 13680 470
994634 10303 525
462034 313626 449
121382 976352 525
966686 738234 525
136175 639303 509
292108 36782 443
777023 69664 509
48477 611073 470
724311 328471 509
345108 259563 407
503891 680828 509
447116 172001 449
413437 59690 449
901138 178635 525
928101 477251 525
388832 745598 509
909905 57565 525
296839 75043 443
551805 184476 470
901755 185324 525
204394 283503 443
867428 73150 525
242595 206274 443
390029 785013 509
396789 207212 443
802174 230404 509
307539 236659 407
949537 896917 507
818564 382689 509
943449 446399 525
5446 941711 525
754503 582631 509
803881 162750 509
496538 891773 525
711927 808291 468
153449 268786 443
193985 488955 449
173187 533344 470
617808 648371 509
937618 103875 525
145723 456511 449
146669 221657 386
984437 728511 525
160117 916981 525
797016 534876 509
401305 205555 443
236566 842849 525
181212 325927 443
321635 520149 470
30458 106591 354
765443 724808 424
95121 600892 470
584955 185006 470
163576 383952 443
631809 674408 442
52921 537467 470
826401 865375 525
910919 543744 525
918372 229650 525
254400 437094 449
103827 697458 509
596914 450665 470
736136 270809 509
161342 314731 443
649820 186093 509
985320 141276 525
317481 208982 443
380391 654840 509
46053 257108 443
622695 733523 509
787402 273354 509
145610 302235 443
869633 35189 525
257019 522296 470
865104 228229 525
883627 628813 525
96681 15332 351
385750 332428 441
89872 802420 509
930725 645607 525
64265 940259 525
184268 353900 443
316885 665367 509
815 62952 340
775840 132739 509
665988 836014 504
650007 694950 442
63380 622528 470
734248 852688 525
537337 257025 470
564991 498636 470
68406 355601 443
675230 268765 509
755762 899169 525
927822 520517 525
110665 565695 470
308509 694480 509
533293 274562 470
718919 402116 509
599430 648372 509
6533 562075 470
759377 885990 525
930787 458170 525
21315 433779 449
438474 224933 449
688166 304469 509
95181 711262 509
41289 425784 449
106072 477786 449
879065 219437 525
362529 829587 509
415904 676779 509
507125 902232 525
138261 693988 509
100805 136077 354
710975 502400 509
298616 828817 509
781992 670666 504
110587 306794 443
658089 157513 509
947059 118526 525
127974 702574 509
120575 75699 354
69486 349455 443
987842 17850 525
480430 344006 449
791452 540724 509
973823 487465 525
544211 323536 470
238910 763390 509
469169 541742 470
796643 89524 509
962180 689515 525
269045 986319 525
87628 658737 509
621784 192058 470
548563 464267 470
224241 858318 525
792134 260221 509
715387 646284 504
549818 686806 509
77787 844063 525
538665 656641 509
235901 912089 525
987691 706322 525
330086 887108 525
663542 340435 509
16899 746347 509
396223 608755 470
764343 66954 509
780916 441924 509
658899 221768 509
786909 431712 509
863367 13215 525
696479 930422 525
619449 674931 509
754781 464908 509
160880 901881 525
389834 487941 449
644797 448675 509
970096 92618 525
736112 826555 468
835199 915580 525
14057 865049 525
675931 976384 525
989376 983462 427
782047 603145 509
249311 135062 443
239953 417368 449
271394 713077 509
369436 421983 449
